[
  {
        "id": 0,
        "title": "Ноутбук ASUS TUF Gaming F15 FX506HE-HN012 (90NR0704-M00CW0)",
        "price": "43.999",
        "image": "https://content2.rozetka.com.ua/goods/images/big/283529272.jpg",
        "article": 351781200,
        "color": "Graphite Black"
  },
  {
        "id": 1,
        "title": "Ноутбук Acer Aspire 7 A715-42G-R7BK (NH.QE5EU.00L)",
        "price": "39.999",
        "image": "https://content.rozetka.com.ua/goods/images/big/284542810.jpg",
        "article": 354933153,
        "color": "Charcoal Black"
  },
  {
        "id": 2,
        "title": "Ноутбук Apple MacBook Air 13 M1 256GB 2020 (MGN63)",
        "price": "42.999",
        "image": "https://content1.rozetka.com.ua/goods/images/big/144249716.jpg",
        "article": 245161909,
        "color": "Space Gray"
  },
  {
        "id": 3,
        "title": "Ноутбук ASUS Laptop X515EA-BQ2066 (90NB0TY1-M00VF0)",
        "price": "22.999",
        "image": "https://content.rozetka.com.ua/goods/images/big/275056537.jpg",
        "article": 77554422,
        "color": "Slate Grey"
  },
  {
        "id": 4,
        "title": "Ноутбук ASUS TUF Gaming F15 FX506HC-HN006 (90NR0723-M01150)",
        "price": "42.999",
        "image": "https://content2.rozetka.com.ua/goods/images/big/278076445.jpg",
        "article": 348159372,
        "color": "Eclipse Gray"
  },
  {
        "id": 5,
        "title": "Ноутбук Apple MacBook Pro 16 M1 Pro 512GB 2021 (MK1E3UA/A)",
        "price": "114.999",
        "image": "https://content.rozetka.com.ua/goods/images/big/229718179.jpg",
        "article": 322714711,
        "color": "Silver"
  },
  {
        "id": 6,
        "title": "Ноутбук ASUS Laptop X515EP-BQ327 (90NB0TZ1-M04660)",
        "price": "23.999",
        "image": "https://content1.rozetka.com.ua/goods/images/big/288164079.jpg",
        "article": 354932187,
        "color": "Slate Grey"
  },
  {
        "id": 7,
        "title": "Ноутбук Lenovo IdeaPad 5 Pro 16ACH6 (82L500XNRA)",
        "price": "49.999",
        "image": "https://content2.rozetka.com.ua/goods/images/big/280626933.jpg",
        "article": 350009652,
        "color": "Cloud Grey"
  },
  {
        "id": 8,
        "title": "Ноутбук Lenovo Yoga 7 14ACN6 (82N7009QRA)",
        "price": "47.777",
        "image": "https://content.rozetka.com.ua/goods/images/big/247773737.jpg",
        "article": 332414782,
        "color": "Slate Grey"
  },
  {
        "id": 9,
        "title": "Ноутбук ASUS Vivobook Pro 15 OLED K6500ZC-MA371 (90NB0XK2-M00N20)",
        "price": "57.999",
        "image": "https://content.rozetka.com.ua/goods/images/big/286188957.jpg",
        "article": 353956824,
        "color": "Cool Silver"
  },
  {
        "id": 10,
        "title": "Ноутбук ASUS VivoBook 15 OLED K513EA-L11309 (90NB0SG1-M012R0)",
        "price": "27.499",
        "image": "https://content1.rozetka.com.ua/goods/images/big/283754509.jpg",
        "article": 351936264,
        "color": "Indie Black"
  },
  {
        "id": 11,
        "title": "Ноутбук ASUS Laptop X515EP-BQ325 (90NB0TZ2-M04640)",
        "price": "30.999",
        "image": "https://content.rozetka.com.ua/goods/images/big/294127919.jpg",
        "article": 357779790,
        "color": "Transparent Silver"
  },
  {
        "id": 12,
        "title": "Ноутбук Lenovo IdeaPad Flex 5 14ITL05 (82HS0178RA)",
        "price": "41.999",
        "image": "https://content2.rozetka.com.ua/goods/images/big/248202961.jpg",
        "article": 332750758,
        "color": "Platinum Grey"
  },
  {
        "id": 13,
        "title": "Ноутбук ASUS ZenBook Duo 14 UX482EGR-HY387W (90NB0S51-M000X0)",
        "price": "66.999",
        "image": "https://content2.rozetka.com.ua/goods/images/big/280700418.jpg",
        "article": 350050284,
        "color": "Celestial Blue"
  },
  {
        "id": 14,
        "title": "Ноутбук HP ZBook Studio G8 (30N04AV_V1)",
        "price": "148.199",
        "image": "https://content2.rozetka.com.ua/goods/images/big/222476183.jpg",
        "article": 319125118,
        "color": "Turbo Silver"
  },
  {
        "id": 15,
        "title": "Ноутбук HP ZBook Studio G8 Turbo",
        "price": "275.945",
        "image": "https://content1.rozetka.com.ua/goods/images/big/296097964.jpg",
        "article": 339200809,
        "color": "Silver"
  }
]

